<?xml version="1.0" standalone="no"?>
<!DOCTYPE svg PUBLIC "-//W3C//DTD SVG 20010904//EN"
 "http://www.w3.org/TR/2001/REC-SVG-20010904/DTD/svg10.dtd">
<svg version="1.0" xmlns="http://www.w3.org/2000/svg"
 width="159.000000pt" height="159.000000pt" viewBox="0 0 159.000000 159.000000"
 preserveAspectRatio="xMidYMid meet">
<metadata>
Created by potrace 1.11, written by Peter Selinger 2001-2013
</metadata>
<g transform="translate(0.000000,159.000000) scale(0.100000,-0.100000)"
fill="#000000" stroke="none">
<path d="M351 1255 c-141 -66 -211 -158 -211 -278 0 -64 1 -65 59 -138 99
-124 249 -227 453 -308 40 -16 117 -50 170 -74 53 -25 134 -57 180 -72 46 -14
104 -34 130 -45 79 -34 248 -22 294 21 24 22 26 29 22 89 -6 73 -49 177 -134
320 -64 107 -187 218 -343 310 -41 24 -93 60 -116 81 -47 44 -107 69 -229 98
-121 29 -206 28 -275 -4z"/>
</g>
</svg>
